{
    "current_page":1,"data":[{"id":5,"name":"I should.","price":38.87,"quantity":21,"category_id":1,"created_at":"2024-06-23T15:16:15.000000Z","updated_at":"2024-06-23T15:16:15.000000Z"},{"id":6,"name":"I know!'.","price":4.88,"quantity":51,"category_id":1,"created_at":"2024-06-23T15:16:15.000000Z","updated_at":"2024-06-23T15:16:15.000000Z"},{"id":7,"name":"Alice to.","price":40.24,"quantity":61,"category_id":1,"created_at":"2024-06-23T15:16:15.000000Z","updated_at":"2024-06-23T15:16:15.000000Z"},{"id":8,"name":"PRECIOUS.","price":67.46,"quantity":53,"category_id":1,"created_at":"2024-06-23T15:16:15.000000Z","updated_at":"2024-06-23T15:16:15.000000Z"},{"id":9,"name":"Cheshire.","price":66.28,"quantity":40,"category_id":1,"created_at":"2024-06-23T15:16:15.000000Z","updated_at":"2024-06-23T15:16:15.000000Z"}],"first_page_url":"http://127.0.0.1:8000/products?page=1","from":1,"last_page":10,"last_page_url":"http://127.0.0.1:8000/products?page=10","links":[{"url":null,"label":"&laquo; Previous","active":false},{"url":"http://127.0.0.1:8000/products?page=1","label":"1","active":true},{"url":"http://127.0.0.1:8000/products?page=2","label":"2","active":false},{"url":"http://127.0.0.1:8000/products?page=3","label":"3","active":false},{"url":"http://127.0.0.1:8000/products?page=4","label":"4","active":false},{"url":"http://127.0.0.1:8000/products?page=5","label":"5","active":false},{"url":"http://127.0.0.1:8000/products?page=6","label":"6","active":false},{"url":"http://127.0.0.1:8000/products?page=7","label":"7","active":false},{"url":"http://127.0.0.1:8000/products?page=8","label":"8","active":false},{"url":"http://127.0.0.1:8000/products?page=9","label":"9","active":false},{"url":"http://127.0.0.1:8000/products?page=10","label":"10","active":false},{"url":"http://127.0.0.1:8000/products?page=2","label":"Next &raquo;","active":false}],"next_page_url":"http://127.0.0.1:8000/products?page=2","path":"http://127.0.0.1:8000/products","per_page":5,"prev_page_url":null,"to":5,"total":50}